{"totalResults": 1072, "startIndex": 1050, "totalPages": 22, "eadSearchResults": [{"id": "C381689389", "findingAidTitle": "Inventaris van het archief van de Meetkundige Dienst: Waterstaatskaarten, 1836-1992", "findingAidNo": "2.16.5151", "repository": "Nationaal Archief", "country": "NETHERLANDS", "language": "", "langMaterial": "", "unitDate": "1986-1987", "repositoryCode": "NL-HaNA", "hasDigitalObject": false, "numberOfDigitalObjects": 0, "numberOfDigitalObjectsInDescendents": 0, "numberOfDescendents": 0, "docType": "Descriptive Unit", "docTypeId": "du", "level": "clevel", "indexDate": "", "unitId": "2.16.5151 - 192", "parentId": "", "unitTitle": "Vijfde editie, Sittard-West uitgave 1987, 1986-1987", "unitTitleWithHighlighting": null, "scopeContent": "", "scopeContentWithHighlighting": null, "numberOfAncestors": 5}, {"id": "C381689390", "findingAidTitle": "Inventaris van het archief van de Meetkundige Dienst: Waterstaatskaarten, 1836-1992", "findingAidNo": "2.16.5151", "repository": "Nationaal Archief", "country": "NETHERLANDS", "language": "", "langMaterial": "", "unitDate": "1987", "repositoryCode": "NL-HaNA", "hasDigitalObject": false, "numberOfDigitalObjects": 0, "numberOfDigitalObjectsInDescendents": 0, "numberOfDescendents": 0, "docType": "Descriptive Unit", "docTypeId": "du", "level": "clevel", "indexDate": "", "unitId": "2.16.5151 - 193", "parentId": "", "unitTitle": "Hydrologische waarnemingspunten, 1987", "unitTitleWithHighlighting": null, "scopeContent": "", "scopeContentWithHighlighting": null, "numberOfAncestors": 5}, {"id": "C381689382", "findingAidTitle": "Inventaris van het archief van de Meetkundige Dienst: Waterstaatskaarten, 1836-1992", "findingAidNo": "2.16.5151", "repository": "Nationaal Archief", "country": "NETHERLANDS", "language": "", "langMaterial": "", "unitDate": "1891-1987", "repositoryCode": "NL-HaNA", "hasDigitalObject": false, "numberOfDigitalObjects": 0, "numberOfDigitalObjectsInDescendents": 0, "numberOfDescendents": 8, "docType": "Descriptive Unit", "docTypeId": "du", "level": "clevel", "indexDate": "", "unitId": "2.16.5151 - 186-193", "parentId": "", "unitTitle": "Bladnr. 60 West, Sittard.", "unitTitleWithHighlighting": null, "scopeContent": "", "scopeContentWithHighlighting": null, "numberOfAncestors": 4}, {"id": "C381689392", "findingAidTitle": "Inventaris van het archief van de Meetkundige Dienst: Waterstaatskaarten, 1836-1992", "findingAidNo": "2.16.5151", "repository": "Nationaal Archief", "country": "NETHERLANDS", "language": "", "langMaterial": "", "unitDate": "1891", "repositoryCode": "NL-HaNA", "hasDigitalObject": false, "numberOfDigitalObjects": 0, "numberOfDigitalObjectsInDescendents": 0, "numberOfDescendents": 0, "docType": "Descriptive Unit", "docTypeId": "du", "level": "clevel", "indexDate": "", "unitId": "2.16.5151 - 210", "parentId": "", "unitTitle": "Eerste uitgave, Maastricht, 1891", "unitTitleWithHighlighting": null, "scopeContent": "", "scopeContentWithHighlighting": null, "numberOfAncestors": 5}, {"id": "C381689393", "findingAidTitle": "Inventaris van het archief van de Meetkundige Dienst: Waterstaatskaarten, 1836-1992", "findingAidNo": "2.16.5151", "repository": "Nationaal Archief", "country": "NETHERLANDS", "language": "", "langMaterial": "", "unitDate": "1933", "repositoryCode": "NL-HaNA", "hasDigitalObject": false, "numberOfDigitalObjects": 0, "numberOfDigitalObjectsInDescendents": 0, "numberOfDescendents": 0, "docType": "Descriptive Unit", "docTypeId": "du", "level": "clevel", "indexDate": "", "unitId": "2.16.5151 - 211", "parentId": "", "unitTitle": "Tweede uitgave, Maastricht, 1933", "unitTitleWithHighlighting": null, "scopeContent": "", "scopeContentWithHighlighting": null, "numberOfAncestors": 5}, {"id": "C381689394", "findingAidTitle": "Inventaris van het archief van de Meetkundige Dienst: Waterstaatskaarten, 1836-1992", "findingAidNo": "2.16.5151", "repository": "Nationaal Archief", "country": "NETHERLANDS", "language": "", "langMaterial": "", "unitDate": "1953", "repositoryCode": "NL-HaNA", "hasDigitalObject": false, "numberOfDigitalObjects": 0, "numberOfDigitalObjectsInDescendents": 0, "numberOfDescendents": 0, "docType": "Descriptive Unit", "docTypeId": "du", "level": "clevel", "indexDate": "", "unitId": "2.16.5151 - 212", "parentId": "", "unitTitle": "Derde uitgave, Maastricht, 1953", "unitTitleWithHighlighting": null, "scopeContent": "", "scopeContentWithHighlighting": null, "numberOfAncestors": 5}, {"id": "C381689395", "findingAidTitle": "Inventaris van het archief van de Meetkundige Dienst: Waterstaatskaarten, 1836-1992", "findingAidNo": "2.16.5151", "repository": "Nationaal Archief", "country": "NETHERLANDS", "language": "", "langMaterial": "", "unitDate": "1970", "repositoryCode": "NL-HaNA", "hasDigitalObject": false, "numberOfDigitalObjects": 0, "numberOfDigitalObjectsInDescendents": 0, "numberOfDescendents": 0, "docType": "Descriptive Unit", "docTypeId": "du", "level": "clevel", "indexDate": "", "unitId": "2.16.5151 - 213", "parentId": "", "unitTitle": "Vierde uitgave, Maastricht, 1970", "unitTitleWithHighlighting": null, "scopeContent": "", "scopeContentWithHighlighting": null, "numberOfAncestors": 5}, {"id": "C381689396", "findingAidTitle": "Inventaris van het archief van de Meetkundige Dienst: Waterstaatskaarten, 1836-1992", "findingAidNo": "2.16.5151", "repository": "Nationaal Archief", "country": "NETHERLANDS", "language": "", "langMaterial": "", "unitDate": "1986-1987", "repositoryCode": "NL-HaNA", "hasDigitalObject": false, "numberOfDigitalObjects": 0, "numberOfDigitalObjectsInDescendents": 0, "numberOfDescendents": 0, "docType": "Descriptive Unit", "docTypeId": "du", "level": "clevel", "indexDate": "", "unitId": "2.16.5151 - 214", "parentId": "", "unitTitle": "Vijfde editie, Maastricht uitgave 1987, 1986-1987", "unitTitleWithHighlighting": null, "scopeContent": "", "scopeContentWithHighlighting": null, "numberOfAncestors": 5}, {"id": "C381689397", "findingAidTitle": "Inventaris van het archief van de Meetkundige Dienst: Waterstaatskaarten, 1836-1992", "findingAidNo": "2.16.5151", "repository": "Nationaal Archief", "country": "NETHERLANDS", "language": "", "langMaterial": "", "unitDate": "1987", "repositoryCode": "NL-HaNA", "hasDigitalObject": false, "numberOfDigitalObjects": 0, "numberOfDigitalObjectsInDescendents": 0, "numberOfDescendents": 0, "docType": "Descriptive Unit", "docTypeId": "du", "level": "clevel", "indexDate": "", "unitId": "2.16.5151 - 215", "parentId": "", "unitTitle": "Hydrologische waarnemingspunten, 1987", "unitTitleWithHighlighting": null, "scopeContent": "", "scopeContentWithHighlighting": null, "numberOfAncestors": 5}, {"id": "C381689391", "findingAidTitle": "Inventaris van het archief van de Meetkundige Dienst: Waterstaatskaarten, 1836-1992", "findingAidNo": "2.16.5151", "repository": "Nationaal Archief", "country": "NETHERLANDS", "language": "", "langMaterial": "", "unitDate": "1891-1987", "repositoryCode": "NL-HaNA", "hasDigitalObject": false, "numberOfDigitalObjects": 0, "numberOfDigitalObjectsInDescendents": 0, "numberOfDescendents": 6, "docType": "Descriptive Unit", "docTypeId": "du", "level": "clevel", "indexDate": "", "unitId": "2.16.5151 - 210-215", "parentId": "", "unitTitle": "Bladnr. 61, Maastricht.", "unitTitleWithHighlighting": null, "scopeContent": "", "scopeContentWithHighlighting": null, "numberOfAncestors": 4}, {"id": "C381689399", "findingAidTitle": "Inventaris van het archief van de Meetkundige Dienst: Waterstaatskaarten, 1836-1992", "findingAidNo": "2.16.5151", "repository": "Nationaal Archief", "country": "NETHERLANDS", "language": "", "langMaterial": "", "unitDate": "1891", "repositoryCode": "NL-HaNA", "hasDigitalObject": false, "numberOfDigitalObjects": 0, "numberOfDigitalObjectsInDescendents": 0, "numberOfDescendents": 0, "docType": "Descriptive Unit", "docTypeId": "du", "level": "clevel", "indexDate": "", "unitId": "2.16.5151 - 33", "parentId": "", "unitTitle": "Eerste uitgave, Heerlen blad 1, 1891", "unitTitleWithHighlighting": null, "scopeContent": "", "scopeContentWithHighlighting": null, "numberOfAncestors": 5}, {"id": "C381689400", "findingAidTitle": "Inventaris van het archief van de Meetkundige Dienst: Waterstaatskaarten, 1836-1992", "findingAidNo": "2.16.5151", "repository": "Nationaal Archief", "country": "NETHERLANDS", "language": "", "langMaterial": "", "unitDate": "1891", "repositoryCode": "NL-HaNA", "hasDigitalObject": false, "numberOfDigitalObjects": 0, "numberOfDigitalObjectsInDescendents": 0, "numberOfDescendents": 0, "docType": "Descriptive Unit", "docTypeId": "du", "level": "clevel", "indexDate": "", "unitId": "2.16.5151 - 34", "parentId": "", "unitTitle": "Eerste uitgave, Heerlen blad 2, 1891", "unitTitleWithHighlighting": null, "scopeContent": "", "scopeContentWithHighlighting": null, "numberOfAncestors": 5}, {"id": "C381689401", "findingAidTitle": "Inventaris van het archief van de Meetkundige Dienst: Waterstaatskaarten, 1836-1992", "findingAidNo": "2.16.5151", "repository": "Nationaal Archief", "country": "NETHERLANDS", "language": "", "langMaterial": "", "unitDate": "1891", "repositoryCode": "NL-HaNA", "hasDigitalObject": false, "numberOfDigitalObjects": 0, "numberOfDigitalObjectsInDescendents": 0, "numberOfDescendents": 0, "docType": "Descriptive Unit", "docTypeId": "du", "level": "clevel", "indexDate": "", "unitId": "2.16.5151 - 35", "parentId": "", "unitTitle": "Eerste uitgave, Heerlen blad 3, 1891", "unitTitleWithHighlighting": null, "scopeContent": "", "scopeContentWithHighlighting": null, "numberOfAncestors": 5}, {"id": "C381689402", "findingAidTitle": "Inventaris van het archief van de Meetkundige Dienst: Waterstaatskaarten, 1836-1992", "findingAidNo": "2.16.5151", "repository": "Nationaal Archief", "country": "NETHERLANDS", "language": "", "langMaterial": "", "unitDate": "1928", "repositoryCode": "NL-HaNA", "hasDigitalObject": false, "numberOfDigitalObjects": 0, "numberOfDigitalObjectsInDescendents": 0, "numberOfDescendents": 0, "docType": "Descriptive Unit", "docTypeId": "du", "level": "clevel", "indexDate": "", "unitId": "2.16.5151 - 36", "parentId": "", "unitTitle": "Tweede uitgave, Heerlen blad 1, 1928", "unitTitleWithHighlighting": null, "scopeContent": "", "scopeContentWithHighlighting": null, "numberOfAncestors": 5}, {"id": "C381689403", "findingAidTitle": "Inventaris van het archief van de Meetkundige Dienst: Waterstaatskaarten, 1836-1992", "findingAidNo": "2.16.5151", "repository": "Nationaal Archief", "country": "NETHERLANDS", "language": "", "langMaterial": "", "unitDate": "1930", "repositoryCode": "NL-HaNA", "hasDigitalObject": false, "numberOfDigitalObjects": 0, "numberOfDigitalObjectsInDescendents": 0, "numberOfDescendents": 0, "docType": "Descriptive Unit", "docTypeId": "du", "level": "clevel", "indexDate": "", "unitId": "2.16.5151 - 37", "parentId": "", "unitTitle": "Tweede uitgave, Heerlen blad 2, 1930", "unitTitleWithHighlighting": null, "scopeContent": "", "scopeContentWithHighlighting": null, "numberOfAncestors": 5}, {"id": "C381689404", "findingAidTitle": "Inventaris van het archief van de Meetkundige Dienst: Waterstaatskaarten, 1836-1992", "findingAidNo": "2.16.5151", "repository": "Nationaal Archief", "country": "NETHERLANDS", "language": "", "langMaterial": "", "unitDate": "1930", "repositoryCode": "NL-HaNA", "hasDigitalObject": false, "numberOfDigitalObjects": 0, "numberOfDigitalObjectsInDescendents": 0, "numberOfDescendents": 0, "docType": "Descriptive Unit", "docTypeId": "du", "level": "clevel", "indexDate": "", "unitId": "2.16.5151 - 38", "parentId": "", "unitTitle": "Tweede uitgave, Heerlen blad 3, 1930", "unitTitleWithHighlighting": null, "scopeContent": "", "scopeContentWithHighlighting": null, "numberOfAncestors": 5}, {"id": "C381689405", "findingAidTitle": "Inventaris van het archief van de Meetkundige Dienst: Waterstaatskaarten, 1836-1992", "findingAidNo": "2.16.5151", "repository": "Nationaal Archief", "country": "NETHERLANDS", "language": "", "langMaterial": "", "unitDate": "1954", "repositoryCode": "NL-HaNA", "hasDigitalObject": false, "numberOfDigitalObjects": 0, "numberOfDigitalObjectsInDescendents": 0, "numberOfDescendents": 0, "docType": "Descriptive Unit", "docTypeId": "du", "level": "clevel", "indexDate": "", "unitId": "2.16.5151 - 39", "parentId": "", "unitTitle": "Derde uitgave, Heerlen, 1954", "unitTitleWithHighlighting": null, "scopeContent": "", "scopeContentWithHighlighting": null, "numberOfAncestors": 5}, {"id": "C381689406", "findingAidTitle": "Inventaris van het archief van de Meetkundige Dienst: Waterstaatskaarten, 1836-1992", "findingAidNo": "2.16.5151", "repository": "Nationaal Archief", "country": "NETHERLANDS", "language": "", "langMaterial": "", "unitDate": "1969", "repositoryCode": "NL-HaNA", "hasDigitalObject": false, "numberOfDigitalObjects": 0, "numberOfDigitalObjectsInDescendents": 0, "numberOfDescendents": 0, "docType": "Descriptive Unit", "docTypeId": "du", "level": "clevel", "indexDate": "", "unitId": "2.16.5151 - 40", "parentId": "", "unitTitle": "Vierde uitgave, Heerlen-West, 1969", "unitTitleWithHighlighting": null, "scopeContent": "", "scopeContentWithHighlighting": null, "numberOfAncestors": 5}, {"id": "C381689407", "findingAidTitle": "Inventaris van het archief van de Meetkundige Dienst: Waterstaatskaarten, 1836-1992", "findingAidNo": "2.16.5151", "repository": "Nationaal Archief", "country": "NETHERLANDS", "language": "", "langMaterial": "", "unitDate": "1970", "repositoryCode": "NL-HaNA", "hasDigitalObject": false, "numberOfDigitalObjects": 0, "numberOfDigitalObjectsInDescendents": 0, "numberOfDescendents": 0, "docType": "Descriptive Unit", "docTypeId": "du", "level": "clevel", "indexDate": "", "unitId": "2.16.5151 - 41", "parentId": "", "unitTitle": "Vierde uitgave, Heerlen-Oost, 1970", "unitTitleWithHighlighting": null, "scopeContent": "", "scopeContentWithHighlighting": null, "numberOfAncestors": 5}, {"id": "C381689408", "findingAidTitle": "Inventaris van het archief van de Meetkundige Dienst: Waterstaatskaarten, 1836-1992", "findingAidNo": "2.16.5151", "repository": "Nationaal Archief", "country": "NETHERLANDS", "language": "", "langMaterial": "", "unitDate": "1986-1987", "repositoryCode": "NL-HaNA", "hasDigitalObject": false, "numberOfDigitalObjects": 0, "numberOfDigitalObjectsInDescendents": 0, "numberOfDescendents": 0, "docType": "Descriptive Unit", "docTypeId": "du", "level": "clevel", "indexDate": "", "unitId": "2.16.5151 - 42", "parentId": "", "unitTitle": "Vijfde editie, Heerlen uitgave 1987, 1986-1987", "unitTitleWithHighlighting": null, "scopeContent": "", "scopeContentWithHighlighting": null, "numberOfAncestors": 5}, {"id": "C381689409", "findingAidTitle": "Inventaris van het archief van de Meetkundige Dienst: Waterstaatskaarten, 1836-1992", "findingAidNo": "2.16.5151", "repository": "Nationaal Archief", "country": "NETHERLANDS", "language": "", "langMaterial": "", "unitDate": "1987", "repositoryCode": "NL-HaNA", "hasDigitalObject": false, "numberOfDigitalObjects": 0, "numberOfDigitalObjectsInDescendents": 0, "numberOfDescendents": 0, "docType": "Descriptive Unit", "docTypeId": "du", "level": "clevel", "indexDate": "", "unitId": "2.16.5151 - 43", "parentId": "", "unitTitle": "Hydrologische waarnemingspunten, Heerlen, 1987", "unitTitleWithHighlighting": null, "scopeContent": "", "scopeContentWithHighlighting": null, "numberOfAncestors": 5}, {"id": "C381689398", "findingAidTitle": "Inventaris van het archief van de Meetkundige Dienst: Waterstaatskaarten, 1836-1992", "findingAidNo": "2.16.5151", "repository": "Nationaal Archief", "country": "NETHERLANDS", "language": "", "langMaterial": "", "unitDate": "1891-1987", "repositoryCode": "NL-HaNA", "hasDigitalObject": false, "numberOfDigitalObjects": 0, "numberOfDigitalObjectsInDescendents": 0, "numberOfDescendents": 11, "docType": "Descriptive Unit", "docTypeId": "du", "level": "clevel", "indexDate": "", "unitId": "2.16.5151 - 33-43", "parentId": "", "unitTitle": "Bladnr. 62, Heerlen.", "unitTitleWithHighlighting": null, "scopeContent": "", "scopeContentWithHighlighting": null, "numberOfAncestors": 4}], "sortFields": ["date", "findingAidNo", "orderId", "title", "referenceCode"], "facetFields": {"country": [{"id": "7", "name": "NETHERLANDS", "frequency": 1072}], "subject": [], "repository": [{"id": "2437", "name": "Nationaal Archief", "frequency": 1072}], "docType": [{"id": "fa", "name": "fa", "frequency": 1072}], "level": [{"id": "clevel", "name": "clevel", "frequency": 1072}], "hasDigitalObject": [{"id": "false", "name": "false", "frequency": 1072}], "digitalObjectType": [], "unitDateType": [{"id": "normal", "name": "normal", "frequency": 1072}]}, "facetDateFields": {"fromDate": [{"id": "1800-01-01_2", "name": "1800-1999", "frequency": 1072}], "toDate": [{"id": "1800-01-01_2", "name": "1800-1999", "frequency": 1072}]}}